…
  # add Tissue and CasE_ID
  left_join(pDat %>% select(Sample_Name, Tissue, Case_ID, contains('Flag')), 
            by = c('Sample1' = 'Sample_Name')) %>%
  
  #Prepare for plotting
  arrange(desc(Average_cor)) %>%
  mutate(Sample1 = factor(as.character(Sample1), levels = Sample1)) 
C_melt3
```

```
## # A tibble: 171 x 6
##    Sample1      Average_cor Tissue           Case_ID Flag_Sex Flag_genotype
##    <fct>              <dbl> <chr>            <chr>   <lgl>    <lgl>        
##  1 PM378_endo_~       0.998 Endothelial      PM378   FALSE    FALSE        
##  2 PM378_hofb_~       0.997 Hofbauer         PM378   FALSE    FALSE        
##  3 PM370_disca~       0.997 Dead Cells and ~ PM370   FALSE    FALSE        
##  4 PM367_strom~       0.997 Stromal          PM367   FALSE    FALSE        
##  5 PM364_strom~       0.997 Stromal          PM364   FALSE    FALSE        
##  6 PM370_endo_~       0.997 Endothelial      PM370   FALSE    FALSE        
##  7 PM367_vc           0.997 Villi            PM367   FALSE    FALSE        
##  8 PM377_endo_~       0.997 Endothelial      PM377   FALSE    FALSE        
##  9 PM367_endo_~       0.997 Endothelial      PM367   FALSE    FALSE        
## 10 PM378_troph~       0.997 Trophoblasts     PM378   FALSE    FALSE        
## # ... with 161 more rows
```
…
