…
```r
#bins
CNV_bins <- lapply(CNV_calls, function(x) CNV.write(x, what = 'bins')[,5])
names(CNV_bins) <- names(CNV_calls)
CNV_bins <- bind_cols(CNV.write(CNV_calls[[1]], what = 'bins')[,1:4],
                      CNV_bins) %>% as_tibble()
CNV_bins 
```

```
## # A tibble: 20,850 x 196
##    Chromosome  Start    End Feature PM365_endo_cs PL295_discard_cs
##    <fct>       <int>  <int> <fct>           <dbl>            <dbl>
##  1 chr1       8.45e5 8.69e5 chr1-0~         0.012            0.014
##  2 chr1       8.71e5 8.76e5 chr1-0~         0.009           -0.112
##  3 chr1       8.76e5 8.89e5 chr1-0~         0.006            0.014
##  4 chr1       8.95e5 8.99e5 chr1-0~         0.007            0.037
##  5 chr1       8.99e5 9.08e5 chr1-0~         0.024           -0.012
##  6 chr1       9.13e5 9.29e5 chr1-0~        -0.003            0.03 
##  7 chr1       9.29e5 9.43e5 chr1-0~         0.013           -0.005
##  8 chr1       9.57e5 9.85e5 chr1-0~         0.008           -0.005
##  9 chr1       9.86e5 9.94e5 chr1-0~         0.009            0.045
## 10 chr1       1.00e6 1.01e6 chr1-0~        -0.004           -0.024
## # ... with 20,840 more rows, and 190 more variables: PL293_strom_cs <dbl>,
## #   PL292_endo_cs <dbl>, FT73_v <dbl>, PM376_vc <dbl>,
## #   PM370_hofb_cs <dbl>, PM368_troph_cs <dbl>, PM368_vc <dbl>,
## #   PL293_hofb_cs <dbl>, PM372_endo_cs <dbl>, PM376_strom_cs <dbl>,
## #   PM367_troph_cs <dbl>, `Mixture 7` <dbl>, FT82_vc <dbl>,
## #   PM371_hofb_cs <dbl>, PM378_vc <dbl>, PM374_tro2 <dbl>,
## #   PM364_hofb_cs <dbl>, PM374_endo_cs <dbl>, PM366_strom_cs <dbl>,
## #   PM362_troph_cs <dbl>, PL290_v <dbl>, PL295_troph_cs <dbl>,
## #   PL296_v <dbl>, PL289_hofb_cs <dbl>, PM364_vc <dbl>,
…
