…
```
## [1] 74558
```

```r
# plot one nonvariable probe
probe_anno %>% filter(nonvariable_edgar == T, nonvariable_norm == T)
```

```
## # A tibble: 74,558 x 7
##    probe_ID number_failed_p~ remove_failed remove_CH_SNP remove_XY
##    <chr>               <dbl> <lgl>         <lgl>         <lgl>    
##  1 cg17236~                5 FALSE         FALSE         FALSE    
##  2 cg21650~                2 FALSE         FALSE         FALSE    
##  3 cg24176~                0 FALSE         FALSE         FALSE    
##  4 cg00172~               10 TRUE          FALSE         FALSE    
##  5 cg15775~                0 FALSE         FALSE         FALSE    
##  6 cg17579~                4 FALSE         FALSE         FALSE    
##  7 cg01658~                1 FALSE         FALSE         FALSE    
##  8 cg16315~                0 FALSE         FALSE         FALSE    
##  9 cg22471~                4 FALSE         FALSE         FALSE    
## 10 cg07102~                1 FALSE         FALSE         FALSE    
## # ... with 74,548 more rows, and 2 more variables:
## #   nonvariable_edgar <lgl>, nonvariable_norm <lgl>
```
…
