…
# 2.0 Data


```r
#sample phenodata 
ss <- read_xlsx('../../data/main/raw/NIH EPIC Batch 2 sample sheet.xlsx', skip = 7)
ss
```

```
## # A tibble: 192 x 19
##    Sample_Name `Chip Number`   Row Well  Case_ID Sex      GA Trimester
##    <chr>               <dbl> <dbl> <chr> <chr>   <chr> <dbl> <chr>    
##  1 PM365_endo~            25     1 A1    PM365   F      NA   Third    
##  2 PL295_disc~            25     2 B1    PL295   F      11.6 First    
##  3 PL293_stro~            25     3 C1    PL293   M       9.6 First    
##  4 PL292_endo~            25     4 D1    PL292   M       7.1 First    
##  5 FT73_v                 25     5 E1    FT73    F      NA   Second   
##  6 PM376_vc               25     6 F1    PM376   F      NA   Third    
##  7 PM370_hofb~            25     7 G1    PM370   F      NA   Third    
##  8 PM368_trop~            25     8 H1    PM368   M      NA   Third    
##  9 PM368_vc               26     1 A2    PM368   M      NA   Third    
## 10 PL293_hofb~            26     2 B2    PL293   M       9.6 First    
## # ... with 182 more rows, and 11 more variables: DNA_QP <chr>, Week <dbl>,
## #   Sample_Plate <chr>, Tissue <chr>, Sentrix_ID <dbl>,
## #   Sentrix_Position <chr>, `Scratches on beadchip` <chr>,
## #   Batch_BSC <chr>, `BSC sample adjustedconcentration` <dbl>, `DNA
## #   concentration after speed vac and dilution (ng/ul)` <dbl>, `Amount of
## #   DNA loaded (ng)` <dbl>
```
…
