…
  # pair cpg with the snp id for each specific mqtl
  inner_join(mqtls_filt %>% select(SNPID, cpgID), by = c('cpg' = 'cpgID'))  %>%
  
  # merge to genotype df
  inner_join(geno_df_long %>% select(-sample_id), 
             by = c('Case_ID' = 'case_id', 'SNPID' = 'snp_name'))

data
```

```
## # A tibble: 277,864 x 10
##    cpg    sample_id  betas Case_ID Tissue Sex   PC1_geno PC2_geno SNPID genotype
##    <chr>  <chr>      <dbl> <chr>   <chr>  <chr>    <dbl>    <dbl> <chr>    <dbl>
##  1 cg000~ PM365_en~ 0.0512 PM365   Endot~ F       -0.132  -0.0313 kgp4~        2
##  2 cg000~ PM376_vc  0.421  PM376   Villi  F       -0.132  -0.0393 kgp4~        2
##  3 cg000~ PM370_ho~ 0.0536 PM370   Hofba~ F       -0.135   0.201  kgp4~        1
##  4 cg000~ PM368_tr~ 0.691  PM368   Troph~ M       -0.132  -0.0526 kgp4~        2
##  5 cg000~ PM368_vc  0.414  PM368   Villi  M       -0.132  -0.0526 kgp4~        2
##  6 cg000~ PM372_en~ 0.0702 PM372   Endot~ M       -0.134  -0.104  kgp4~        2
##  7 cg000~ PM376_st~ 0.228  PM376   Strom~ F       -0.132  -0.0393 kgp4~        2
##  8 cg000~ PM367_tr~ 0.108  PM367   Troph~ F       -0.135   0.209  kgp4~        1
##  9 cg000~ PM371_ho~ 0.0592 PM371   Hofba~ F       -0.135  -0.101  kgp4~        1
## 10 cg000~ PM378_vc  0.261  PM378   Villi  M       -0.134  -0.0995 kgp4~        1
## # ... with 277,854 more rows
```
…
  unnest(results) %>%
  select(-model, -data, -(df:df.residual)) %>%
  clean_names() %>%
  
  # mult test correct
  ungroup() %>%
  mutate(fdr = p.adjust(p_value, method = 'fdr')) 

results
```

```
## # A tibble: 14,780 x 9
##    cpg    tissue snpid r_squared adj_r_squared   sigma statistic p_value     fdr
##    <chr>  <chr>  <chr>     <dbl>         <dbl>   <dbl>     <dbl>   <dbl>   <dbl>
##  1 cg000~ Endot~ kgp4~     0.181       -0.0525 0.0139      0.776 5.59e-1 0.670  
##  2 cg000~ Villi  kgp4~     0.774        0.710  0.0490     12.0   1.93e-4 0.00251
##  3 cg000~ Hofba~ kgp4~     0.405        0.222  0.00733     2.21  1.25e-1 0.245  
##  4 cg000~ Troph~ kgp4~     0.623        0.516  0.104       5.80  5.76e-3 0.0284 
##  5 cg000~ Strom~ kgp4~     0.738        0.663  0.0411      9.86  5.22e-4 0.00509
##  6 cg000~ Endot~ rs64~     0.440        0.280  0.0469      2.75  7.04e-2 0.165  
##  7 cg000~ Villi  rs64~     0.505        0.363  0.0548      3.57  3.31e-2 0.0975 
##  8 cg000~ Hofba~ rs64~     0.309        0.0966 0.0164      1.45  2.72e-1 0.416  
##  9 cg000~ Troph~ rs64~     0.347        0.161  0.146       1.86  1.73e-1 0.306  
## 10 cg000~ Strom~ rs64~     0.269        0.0595 0.0141      1.28  3.23e-1 0.467  
## # ... with 14,770 more rows
```
…
