…
  # get sample names for each tissue
  mutate(
         densities = map(beta, ~ density(.)),
         x = map(densities, 'x'),
         y = map(densities, 'y')) %>%
 # remove input data
  select( Tissue, x, y, contains('p')) %>%
  unnest(cols = c(x, y))

imprint_density
```

```
## # A tibble: 5,120 x 7
## # Groups:   imprint_tissue_specificity [2]
##    Tissue              x       y imprint_tissue_specifi~ p_25_75 p_0_25 p_75_100
##    <chr>           <dbl>   <dbl> <chr>                     <dbl>  <dbl>    <dbl>
##  1 Endothelial ~ -0.0660 0.00141 other                     0.717  0.211   0.0724
##  2 Endothelial ~ -0.0638 0.00193 other                     0.717  0.211   0.0724
##  3 Endothelial ~ -0.0616 0.00262 other                     0.717  0.211   0.0724
##  4 Endothelial ~ -0.0594 0.00352 other                     0.717  0.211   0.0724
##  5 Endothelial ~ -0.0572 0.00473 other                     0.717  0.211   0.0724
##  6 Endothelial ~ -0.0550 0.00633 other                     0.717  0.211   0.0724
##  7 Endothelial ~ -0.0528 0.00838 other                     0.717  0.211   0.0724
##  8 Endothelial ~ -0.0506 0.0110  other                     0.717  0.211   0.0724
##  9 Endothelial ~ -0.0484 0.0143  other                     0.717  0.211   0.0724
## 10 Endothelial ~ -0.0462 0.0184  other                     0.717  0.211   0.0724
## # ... with 5,110 more rows
```
…
