…
res <- rbind(counts_third, counts_first) %>%
  as.data.frame() %>%
  bind_cols(Sample_Name = rownames(.), .) %>%
  inner_join(pData(mset_test) %>% as_tibble());res
```

```
## Joining, by = "Sample_Name"
```

```
## # A tibble: 44 x 25
##    Sample_Name Trophoblasts Stromal Hofbauer Endothelial Chip_number   Row Well 
##    <chr>              <dbl>   <dbl>    <dbl>       <dbl>       <dbl> <dbl> <chr>
##  1 PM376_vc          0.919  0.0280   0.0277       0.0482          25     6 F1   
##  2 PM368_vc          0.872  0.0606   0.0328       0.0677          26     1 A2   
##  3 Mixture 7         0.0366 0.688    0.0403       0.163           26     6 F2   
##  4 PM378_vc          0.866  0.0652   0.0211       0.0640          27     1 A3   
##  5 PM364_vc          0.909  0.0303   0.0238       0.0670          28     3 C4   
##  6 PM365_vc          0.837  0.0743   0.0454       0.0820          29     1 A5   
##  7 PM362_vc          0.964  0.0363   0.0174       0.0361          29     8 H5   
##  8 PM371_vc          0.763  0.122    0.0764       0.0736          30     2 B6   
##  9 Mixture 11        0.426  0.387    0.0463       0.0469          30     5 E6   
## 10 PM324_V1          0.949  0.00559  0.00259      0.0689          31     5 E7   
## # ... with 34 more rows, and 17 more variables: Case_ID <chr>, Sex <chr>,
## #   GA <dbl>, Trimester <chr>, DNA_QP <chr>, Week <dbl>, Sample_Plate <chr>,
## #   Tissue <chr>, Sentrix_ID <dbl>, Sentrix_Position <chr>, Scratches <chr>,
## #   Batch_BSC <chr>, DNA_conc_BSC_adjusted <dbl>, DNA_conc_before_load <dbl>,
## #   DNA_loaded <dbl>, Sentrix <chr>, CellType <chr>
```
…
