…
## Hierarchical clustering


```r
# assign sample names as numbers
x <- pDat_1 %>%  select(Sample_Name, Case_ID, Tissue)  %>%
  mutate(Sample_number = as.numeric(as.factor(Case_ID))) %>%
  mutate(Sample_ID = paste0(Sample_number, 
                            '_', 
                            str_extract(pDat_1$Sample_Name, '(?<=_).*')))
x
```

```
## # A tibble: 103 x 5
##    Sample_Name    Case_ID Tissue       Sample_number Sample_ID  
##    <chr>          <chr>   <chr>                <dbl> <chr>      
##  1 PM365_endo_cs  PM365   Endothelial              5 5_endo_cs  
##  2 PM376_vc       PM376   Villi                   16 16_vc      
##  3 PM370_hofb_cs  PM370   Hofbauer                10 10_hofb_cs 
##  4 PM368_troph_cs PM368   Trophoblasts             8 8_troph_cs 
##  5 PM368_vc       PM368   Villi                    8 8_vc       
##  6 PM372_endo_cs  PM372   Endothelial             12 12_endo_cs 
##  7 PM376_strom_cs PM376   Stromal                 16 16_strom_cs
##  8 PM367_troph_cs PM367   Trophoblasts             7 7_troph_cs 
##  9 PM371_hofb_cs  PM371   Hofbauer                11 11_hofb_cs 
## 10 PM378_vc       PM378   Villi                   18 18_vc      
## # ... with 93 more rows
```
…
