…
  # 4. Reverse the scale such that 1 is 100% maternal contamination and 0 is 0%
  y_norm_flip <- 1 - y_norm
  
  return(y_norm_flip)
}

# check that this matches our previous manual calculation
pDat %>% filter(Sex == 'F') %>%
  mutate(out = infer_maternal(cor_to_reference)) %>%
  select(out, maternal_contamination_norm_flip)
```

```
## # A tibble: 97 x 2
##       out maternal_contamination_norm_flip
##     <dbl>                            <dbl>
##  1 0.0308                           0.0308
##  2 0.129                            0.129 
##  3 0.0215                           0.0215
##  4 0.0215                           0.0215
##  5 0.0321                           0.0321
##  6 0.0272                           0.0272
##  7 0.0292                           0.0292
##  8 0.0421                           0.0421
##  9 0.0342                           0.0342
## 10 0.0215                           0.0215
## # ... with 87 more rows
```
…
