…
```r
results.ranges <- results.ranges %>%
  mutate(contrast = gsub('_cs.*', '', contrast)) %>%
  separate(contrast, into = c('Trimester', 'Celltype')) %>%
  select(-cpgannotate, -out)  %>%
  unnest(out_tibble)

# sumarize
results.ranges
```

```
## # A tibble: 554,490 x 15
##    Trimester Celltype     start       end width strand[,1] seqname no.cpgs
##    <chr>     <chr>        <int>     <int> <int> <chr>      <chr>     <int>
##  1 First     Endo       2321770   2324401  2632 *          chr11        34
##  2 First     Endo      57581478  57583709  2232 *          chr20        29
##  3 First     Endo      36145902  36151683  5782 *          chr20        54
##  4 First     Endo      56405155  56409534  4380 *          chr17        21
##  5 First     Endo      31880438  31883115  2678 *          chr12        18
##  6 First     Endo      92921509  92932481 10973 *          chr5         31
##  7 First     Endo      31539539  31543686  4148 *          chr6         37
##  8 First     Endo      94825257  94829039  3783 *          chr10        14
##  9 First     Endo      32036530  32059605 23076 *          chr6        169
## 10 First     Endo     105452339 105455544  3206 *          chr10        14
## # ... with 554,480 more rows, and 7 more variables: min_smoothed_fdr <dbl>,
## #   Stouffer <dbl>, HMFDR <dbl>, Fisher <dbl>, maxdiff <dbl>, meandiff <dbl>,
## #   overlapping.genes <chr>
```
…
