…
## Warning in chisq.test(.): Chi-squared approximation may be incorrect

## Warning in chisq.test(.): Chi-squared approximation may be incorrect

## Warning in chisq.test(.): Chi-squared approximation may be incorrect

## Warning in chisq.test(.): Chi-squared approximation may be incorrect
```

```r
tests
```

```
## # A tibble: 336 x 19
##         FDR FDR01 bonferroni bonferroni01        p Group1 genomic_feature
##       <dbl> <lgl>      <dbl> <lgl>           <dbl> <chr>  <chr>          
##  1 1.95e-58 TRUE    1.85e-56 TRUE         5.65e-59 First~ 1to5kb         
##  2 1.29e- 2 FALSE   1.00e+ 0 FALSE        9.57e- 3 First~ 3UTR           
##  3 4.11e-84 TRUE    3.49e-82 TRUE         1.07e-84 First~ 5UTR           
##  4 3.32e- 1 FALSE   1.00e+ 0 FALSE        2.94e- 1 First~ chr1           
##  5 8.14e- 4 TRUE    1.73e- 1 FALSE        5.29e- 4 First~ chr10          
##  6 4.58e- 4 TRUE    9.44e- 2 FALSE        2.88e- 4 First~ chr11          
##  7 4.77e- 2 FALSE   1.00e+ 0 FALSE        3.81e- 2 First~ chr12          
##  8 5.99e- 8 TRUE    1.00e- 5 TRUE         3.05e- 8 First~ chr13          
##  9 6.98e- 4 TRUE    1.47e- 1 FALSE        4.49e- 4 First~ chr14          
## 10 3.77e- 1 FALSE   1.00e+ 0 FALSE        3.37e- 1 First~ chr15          
## # ... with 326 more rows, and 12 more variables: Observed_n_in <dbl>,
## #   Observed_n_out <dbl>, Observed_p_in <dbl>, Observed_p_out <dbl>,
## #   Expected_n_in <dbl>, Expected_n_out <dbl>, Expected_p_in <dbl>,
## #   Expected_p_out <dbl>, Observed_notDMC_in <dbl>,
## #   Observed_notDMC_out <dbl>, test_in <list>, test_out <list>
```
…
